<svg width="500" height="100" viewBox="0 0 500 100" fill="none" xmlns="http://www.w3.org/2000/svg">
<path d="M81 43.4009L117.734 25.394V39.7995L81 57.8064V43.4009Z" fill="#0F547E"/>
<path d="M81 58.1665L117.734 76.1734V61.7679L81 43.761V58.1665Z" fill="#28B2B6"/>
<path d="M165.004 41.7431L151.688 55.7354L165.274 75H154.256L145.469 62.2921L141.751 66.2126V75H132.761V26.061H141.751V54.1131L153.243 41.7431H165.004ZM175.454 75H166.464V41.7431H175.454V75ZM165.382 30.8603C165.382 29.3281 165.923 28.0213 167.005 26.9398C168.086 25.8132 169.393 25.2499 170.925 25.2499C172.457 25.2499 173.764 25.7907 174.846 26.8722C175.927 27.9537 176.468 29.2831 176.468 30.8603C176.468 32.3474 175.927 33.6317 174.846 34.7132C173.764 35.7948 172.457 36.3355 170.925 36.3355C169.393 36.3355 168.086 35.7948 167.005 34.7132C165.923 33.6317 165.382 32.3474 165.382 30.8603Z" fill="#0F547E"/>
<path d="M208.607 49.0434C206.218 49.0434 204.213 49.8771 202.591 51.5444C200.968 53.2118 200.157 55.4875 200.157 58.3716C200.157 61.2556 200.968 63.5539 202.591 65.2663C204.258 66.9336 206.286 67.7673 208.674 67.7673C210.792 67.7673 212.482 67.2265 213.744 66.145C215.006 65.0184 215.862 63.6891 216.313 62.1569L224.221 64.7931C223.41 67.8574 221.653 70.4936 218.949 72.7018C216.245 74.9099 212.82 76.0139 208.674 76.0139C203.717 76.0139 199.549 74.3466 196.169 71.0119C192.835 67.6321 191.167 63.4187 191.167 58.3716C191.167 53.2794 192.812 49.066 196.102 45.7313C199.436 42.3966 203.537 40.7292 208.404 40.7292C212.64 40.7292 216.11 41.8333 218.814 44.0414C221.517 46.2044 223.252 48.8406 224.018 51.95L215.975 54.6538C214.893 50.9136 212.437 49.0434 208.607 49.0434ZM235.369 65.3339C237.037 67.0012 239.042 67.8349 241.385 67.8349C243.728 67.8349 245.711 67.0012 247.334 65.3339C249.001 63.6665 249.835 61.3458 249.835 58.3716C249.835 55.3974 249.001 53.0766 247.334 51.4093C245.711 49.7419 243.728 48.9082 241.385 48.9082C239.042 48.9082 237.037 49.7419 235.369 51.4093C233.747 53.0766 232.936 55.3974 232.936 58.3716C232.936 61.3458 233.747 63.6665 235.369 65.3339ZM228.88 45.7313C232.215 42.3966 236.383 40.7292 241.385 40.7292C246.387 40.7292 250.533 42.3966 253.823 45.7313C257.157 49.066 258.825 53.2794 258.825 58.3716C258.825 63.4637 257.157 67.6772 253.823 71.0119C250.533 74.3466 246.387 76.0139 241.385 76.0139C236.383 76.0139 232.215 74.3466 228.88 71.0119C225.59 67.6772 223.946 63.4637 223.946 58.3716C223.946 53.2794 225.59 49.066 228.88 45.7313ZM270.856 55.8705V75H261.865V41.7431H270.585V45.8664C271.532 44.2442 272.883 43.0049 274.641 42.1487C276.398 41.2925 278.246 40.8644 280.184 40.8644C284.104 40.8644 287.079 42.1036 289.106 44.5821C291.179 47.0156 292.216 50.17 292.216 54.0455V75H283.226V55.6002C283.226 53.6174 282.707 52.0176 281.671 50.8009C280.679 49.5842 279.147 48.9758 277.074 48.9758C275.182 48.9758 273.672 49.6292 272.546 50.9361C271.419 52.2429 270.856 53.8877 270.856 55.8705ZM306.274 55.8705V75H297.284V41.7431H306.004V45.8664C306.95 44.2442 308.302 43.0049 310.06 42.1487C311.817 41.2925 313.665 40.8644 315.603 40.8644C319.523 40.8644 322.497 42.1036 324.525 44.5821C326.598 47.0156 327.635 50.17 327.635 54.0455V75H318.644V55.6002C318.644 53.6174 318.126 52.0176 317.09 50.8009C316.098 49.5842 314.566 48.9758 312.493 48.9758C310.601 48.9758 309.091 49.6292 307.964 50.9361C306.838 52.2429 306.274 53.8877 306.274 55.8705ZM339.26 54.5862H354.131C354.041 52.7386 353.365 51.1839 352.103 49.9222C350.886 48.6604 349.084 48.0295 346.695 48.0295C344.532 48.0295 342.775 48.7054 341.423 50.0574C340.071 51.4093 339.35 52.9189 339.26 54.5862ZM355.01 63.2384L362.513 65.4691C361.611 68.5334 359.831 71.0569 357.173 73.0397C354.559 75.0225 351.292 76.0139 347.371 76.0139C342.595 76.0139 338.539 74.4142 335.204 71.2147C331.87 67.9701 330.202 63.644 330.202 58.2364C330.202 53.0991 331.824 48.9082 335.069 45.6637C338.314 42.374 342.144 40.7292 346.56 40.7292C351.697 40.7292 355.708 42.2614 358.592 45.3257C361.521 48.39 362.986 52.6034 362.986 57.966C362.986 58.3265 362.963 58.7321 362.918 59.1827C362.918 59.6333 362.918 59.9939 362.918 60.2642L362.851 60.7374H339.057C339.147 62.9004 340.003 64.703 341.626 66.145C343.248 67.5871 345.186 68.3081 347.439 68.3081C351.269 68.3081 353.793 66.6182 355.01 63.2384ZM380.948 49.0434C378.56 49.0434 376.555 49.8771 374.932 51.5444C373.31 53.2118 372.499 55.4875 372.499 58.3716C372.499 61.2556 373.31 63.5539 374.932 65.2663C376.6 66.9336 378.627 67.7673 381.016 67.7673C383.134 67.7673 384.824 67.2265 386.085 66.145C387.347 65.0184 388.203 63.6891 388.654 62.1569L396.563 64.7931C395.752 67.8574 393.994 70.4936 391.29 72.7018C388.586 74.9099 385.162 76.0139 381.016 76.0139C376.059 76.0139 371.89 74.3466 368.511 71.0119C365.176 67.6321 363.509 63.4187 363.509 58.3716C363.509 53.2794 365.153 49.066 368.443 45.7313C371.778 42.3966 375.879 40.7292 380.745 40.7292C384.981 40.7292 388.451 41.8333 391.155 44.0414C393.859 46.2044 395.594 48.8406 396.36 51.95L388.316 54.6538C387.235 50.9136 384.779 49.0434 380.948 49.0434ZM410.204 31.8066V41.7431H416.896V49.7194H410.204V63.644C410.204 65.041 410.519 66.0324 411.15 66.6182C411.781 67.204 412.772 67.4969 414.124 67.4969C415.341 67.4969 416.265 67.4068 416.896 67.2265V74.662C415.589 75.2028 413.899 75.4732 411.826 75.4732C408.582 75.4732 406.013 74.5719 404.12 72.7694C402.228 70.9218 401.281 68.3982 401.281 65.1987V49.7194H395.265V41.7431H396.955C398.622 41.7431 399.884 41.27 400.74 40.3236C401.642 39.3322 402.092 38.0479 402.092 36.4707V31.8066H410.204Z" fill="#28B2B6"/>
</svg>
